{
    "app-id": "com.raggesilver.ColorPicker",
    "runtime": "org.gnome.Platform",
    "runtime-version": "3.34",
    "sdk": "org.gnome.Sdk",
    "command": "color_picker",
    "finish-args": [
        "--share=network",
        "--share=ipc",
        "--socket=x11",
        "--socket=wayland",
        "--filesystem=home",
        "--filesystem=xdg-run/dconf",
        "--filesystem=~/.config/dconf:ro",
        "--talk-name=ca.desrt.dconf",
        "--env=DCONF_USER_CONFIG_DIR=.config/dconf"
    ],
    "cleanup": [
        "/include",
        "/lib/pkgconfig",
        "/man",
        "/share/doc",
        "/share/gtk-doc",
        "/share/man",
        "/share/pkgconfig",
        "/share/vala",
        "*.la",
        "*.a"
    ],
    "modules": [
        {
            "name" : "marble",
            "buildsystem" : "meson",
            "sources" : [
                {
                    "type" : "git",
                    "url" : "https://gitlab.com/raggesilver/marble"
                }
            ]
        },
        {
            "name": "color_picker",
            "builddir": true,
            "buildsystem": "meson",
            "sources": [
                {
                    "type": "git",
                    "url": "https://gitlab.com/raggesilver/color-picker"
                }
            ]
        }
    ]
}
